{
"soulcycle": {
        "base_url":"https://www.soul-cycle.com",
        "url":"https://www.soul-cycle.com/studios/full-list/",
        "order": ["all_studios", "studio_view", "class_view", "bike_view"],
        "all_studios":{
                "tags":{
                        "open":{"class":"studio-detail", "blocktype":"div"}
                       },
                "href":"/studios/"
                },
        "studio_view":{
                "tags": {
                        "open":{"class":"studio-content", "blocktype":"div"}
                        },
                "href":"/find-a-class/studio"
                },
       
        "class_view":{
                "tags": {
                        "open":{"class":"session open", "blocktype":"div"},
                        "closed":{"class":"session full", "blocktype":"div"}
                        },
                "href":"/find-a-class/select-bike/"
                },

        "bike_view":{
                "tags":
                        {
                        "open":{"class":"seat open", "blocktype":"div"},
                        "closed":{"class":"seat taken", "blocktype":"div"}
			},
                "data":{
                        "header":"select-bike-grid-container",
                        "instructor":"name",
                        "time": "location",
                        "timeformat":"%A, %b %d at %I:%M %p",
                        "location": "title" 
                        },

                "exceptions":{
                            "header":{"class":"message", "blocktype":"span"},
                            "closed":"THE CLASS YOU REQUESTED IS FULL!",
                            "open":"SORRY, THE RESERVATION WINDOW CLOSES ONE HOUR PRIOR TO THE CLASS!"
                            }
                }
   
}}
